{
	"info": {
		"_postman_id": "0d670a71-1542-479a-a177-cd09ccd13491",
		"name": "Task API integrated",
		"schema": "https://schema.getpostman.com/json/collection/v2.1.0/collection.json"
	},
	"item": [
		{
			"name": "v1.2",
			"item": [
				{
					"name": "list tasks wo cookies",
					"event": [
						{
							"listen": "prerequest",
							"script": {
								"exec": [
									"//clear tasks cookies\r",
									"const tasksUrl = pm.collectionVariables.get(\"tasksUrl\");\r",
									"pm.cookies.jar().clear(tasksUrl, function(error) {\r",
									"    if (error) console.log(error);\r",
									"});\r",
									""
								],
								"type": "text/javascript"
							}
						},
						{
							"listen": "test",
							"script": {
								"exec": [
									"pm.test(\"response must be forbidden\", function () {\r",
									"    pm.response.to.be.forbidden;\r",
									"});\r",
									""
								],
								"type": "text/javascript"
							}
						}
					],
					"request": {
						"method": "GET",
						"header": [],
						"url": {
							"raw": "{{tasksUrl}}/tasks/",
							"host": [
								"{{tasksUrl}}"
							],
							"path": [
								"tasks",
								""
							]
						}
					},
					"response": [
						{
							"name": "403 Forbidden",
							"originalRequest": {
								"method": "GET",
								"header": [],
								"url": {
									"raw": "{{tasksUrl}}/tasks/",
									"host": [
										"{{tasksUrl}}"
									],
									"path": [
										"tasks",
										""
									]
								}
							},
							"status": "Forbidden",
							"code": 403,
							"_postman_previewlanguage": "plain",
							"header": [
								{
									"key": "Content-Type",
									"value": "text/plain; charset=utf-8"
								},
								{
									"key": "X-Content-Type-Options",
									"value": "nosniff"
								},
								{
									"key": "Date",
									"value": "Sun, 24 Jul 2022 01:12:41 GMT"
								},
								{
									"key": "Content-Length",
									"value": "3"
								}
							],
							"cookie": [],
							"body": "{}\n"
						}
					]
				},
				{
					"name": "login in auth service",
					"event": [
						{
							"listen": "test",
							"script": {
								"exec": [
									"pm.test(\"response must be valid and have a body\", function () {\r",
									"     pm.response.to.be.ok;\r",
									"     pm.response.to.be.withBody;\r",
									"     pm.response.to.be.json;\r",
									"});\r",
									"\r",
									"pm.test(\"Status code is 200\", function() {\r",
									"    pm.expect(pm.response.code).to.eql(200);\r",
									"})\r",
									"\r",
									"pm.test(\"accessToken is not empty\", function() {\r",
									"    pm.response.to.have.jsonBody(\"accessToken\");\r",
									"    var jsonData = pm.response.json()\r",
									"    pm.globals.set(\"accessToken\", jsonData.accessToken);\r",
									"})\r",
									"pm.test(\"refreshToken is not empty\", function() {\r",
									"    pm.response.to.have.jsonBody(\"refreshToken\");\r",
									"})\r",
									"\r",
									"\r",
									"//save auth cookies\r",
									"const cookieJar = pm.cookies.jar();\r",
									"cookieJar.getAll(pm.request.url, function(err, cookies) {\r",
									"    if (!err) {\r",
									"        cookies.map(function(elem) {\r",
									"            switch(elem.name) {\r",
									"            case \"AccessToken\":\r",
									"                pm.collectionVariables.set(\"authAccessToken\", elem.value);\r",
									"                break;\r",
									"            case \"RefreshToken\":\r",
									"                pm.collectionVariables.set(\"authRefreshToken\", elem.value);\r",
									"                break;\r",
									"            case \"Login\":\r",
									"                pm.collectionVariables.set(\"authLogin\", elem.value);\r",
									"                break;\r",
									"            };\r",
									"        })\r",
									"        //console.log(pm.collectionVariables.get(\"authAccessToken\"))\r",
									"        //console.log(pm.collectionVariables.get(\"authRefreshToken\"))\r",
									"        //console.log(pm.collectionVariables.get(\"authLogin\"))\r",
									"    }\r",
									"})\r",
									""
								],
								"type": "text/javascript"
							}
						}
					],
					"request": {
						"auth": {
							"type": "basic",
							"basic": [
								{
									"key": "password",
									"value": "{{password}}",
									"type": "string"
								},
								{
									"key": "username",
									"value": "{{login}}",
									"type": "string"
								}
							]
						},
						"method": "POST",
						"header": [],
						"url": {
							"raw": "{{authUrl}}/login",
							"host": [
								"{{authUrl}}"
							],
							"path": [
								"login"
							]
						}
					},
					"response": [
						{
							"name": "OK - got cookies",
							"originalRequest": {
								"method": "POST",
								"header": [],
								"url": {
									"raw": "{{authUrl}}/login",
									"host": [
										"{{authUrl}}"
									],
									"path": [
										"login"
									]
								}
							},
							"status": "OK",
							"code": 200,
							"_postman_previewlanguage": "json",
							"header": [
								{
									"key": "Content-Type",
									"value": "application/json"
								},
								{
									"key": "Set-Cookie",
									"value": "Login=test123; Expires=Sat, 01 Jan 10000 00:00:00 GMT"
								},
								{
									"key": "Set-Cookie",
									"value": "AccessToken=6d609caf-69f5-466d-8754-e1a07bc491ee; Expires=Sat, 01 Jan 10000 00:00:00 GMT"
								},
								{
									"key": "Set-Cookie",
									"value": "RefreshToken=eyJhbGciOiJIUzI1NiIsInR5cCI6IkpXVCJ9.eyJleHAiOjE2NTg2MjU4ODksImxvZ2luIjoidGVzdDEyMyJ9.YNGIVd77MYWRVneyCAfUrTvPuOG_jx_h_Y5caV5uUEc; Expires=Sat, 01 Jan 10000 00:00:00 GMT"
								},
								{
									"key": "Date",
									"value": "Sun, 24 Jul 2022 01:19:49 GMT"
								},
								{
									"key": "Content-Length",
									"value": "201"
								}
							],
							"cookie": [],
							"body": "{\n    \"accessToken\": \"6d609caf-69f5-466d-8754-e1a07bc491ee\",\n    \"refreshToken\": \"eyJhbGciOiJIUzI1NiIsInR5cCI6IkpXVCJ9.eyJleHAiOjE2NTg2MjU4ODksImxvZ2luIjoidGVzdDEyMyJ9.YNGIVd77MYWRVneyCAfUrTvPuOG_jx_h_Y5caV5uUEc\"\n}"
						}
					]
				},
				{
					"name": "list tasks",
					"event": [
						{
							"listen": "prerequest",
							"script": {
								"exec": [
									"//initial setup cookies from auth step\r",
									"const authAccessToken = pm.collectionVariables.get(\"authAccessToken\");\r",
									"const authRefreshToken = pm.collectionVariables.get(\"authRefreshToken\");\r",
									"const authLogin = pm.collectionVariables.get(\"authLogin\")\r",
									"\r",
									"pm.request.headers.add({\r",
									"    key: \"Cookie\",\r",
									"    value: \"AccessToken=\" + authAccessToken + \"; Login=\" + authLogin + \"; RefreshToken=\" + authRefreshToken\r",
									"})\r",
									"//console.log(pm.request.headers)\r",
									""
								],
								"type": "text/javascript"
							}
						},
						{
							"listen": "test",
							"script": {
								"exec": [
									"pm.test(\"response must be valid and have a body\", function () {\r",
									"    pm.response.to.be.ok;\r",
									"    pm.response.to.be.withBody;\r",
									"    pm.response.to.be.json;     \r",
									"});\r",
									""
								],
								"type": "text/javascript"
							}
						}
					],
					"protocolProfileBehavior": {
						"disableBodyPruning": true
					},
					"request": {
						"method": "GET",
						"header": [],
						"body": {
							"mode": "raw",
							"raw": "{\"email\":\"{{login}}\"}\r\n",
							"options": {
								"raw": {
									"language": "json"
								}
							}
						},
						"url": {
							"raw": "{{tasksUrl}}/tasks/",
							"host": [
								"{{tasksUrl}}"
							],
							"path": [
								"tasks",
								""
							]
						}
					},
					"response": [
						{
							"name": "OK - empty list",
							"originalRequest": {
								"method": "GET",
								"header": [],
								"body": {
									"mode": "raw",
									"raw": "{\"email\":\"{{login}}\"}\r\n",
									"options": {
										"raw": {
											"language": "json"
										}
									}
								},
								"url": {
									"raw": "{{tasksUrl}}/tasks/",
									"host": [
										"{{tasksUrl}}"
									],
									"path": [
										"tasks",
										""
									]
								}
							},
							"status": "OK",
							"code": 200,
							"_postman_previewlanguage": "json",
							"header": [
								{
									"key": "Content-Type",
									"value": "application/json"
								},
								{
									"key": "Set-Cookie",
									"value": "Login=test123; Path=/; Expires=Fri, 01 Jan 9999 00:00:00 GMT"
								},
								{
									"key": "Set-Cookie",
									"value": "AccessToken=6280930a-437d-40f1-950f-c26652703aca; Path=/; Expires=Fri, 01 Jan 9999 00:00:00 GMT"
								},
								{
									"key": "Set-Cookie",
									"value": "RefreshToken=eyJhbGciOiJIUzI1NiIsInR5cCI6IkpXVCJ9.eyJleHAiOjE2NTg2MjYyMDYsImxvZ2luIjoidGVzdDEyMyJ9.aSm9kkmmDXVohaal0FmWwTUEP5come8hZFYO8PPd_es; Path=/; Expires=Fri, 01 Jan 9999 00:00:00 GMT"
								},
								{
									"key": "Date",
									"value": "Sun, 24 Jul 2022 01:25:06 GMT"
								},
								{
									"key": "Content-Length",
									"value": "2"
								}
							],
							"cookie": [],
							"body": "[]"
						},
						{
							"name": "OK - one task",
							"originalRequest": {
								"method": "GET",
								"header": [],
								"body": {
									"mode": "raw",
									"raw": "{\"email\":\"{{login}}\"}\r\n",
									"options": {
										"raw": {
											"language": "json"
										}
									}
								},
								"url": {
									"raw": "{{tasksUrl}}/tasks/",
									"host": [
										"{{tasksUrl}}"
									],
									"path": [
										"tasks",
										""
									]
								}
							},
							"status": "OK",
							"code": 200,
							"_postman_previewlanguage": "json",
							"header": [
								{
									"key": "Content-Type",
									"value": "application/json"
								},
								{
									"key": "Set-Cookie",
									"value": "Login=test123; Path=/; Expires=Fri, 01 Jan 9999 00:00:00 GMT"
								},
								{
									"key": "Set-Cookie",
									"value": "AccessToken=8c7f32ee-25e8-420a-8f42-9ca83443f1f2; Path=/; Expires=Fri, 01 Jan 9999 00:00:00 GMT"
								},
								{
									"key": "Set-Cookie",
									"value": "RefreshToken=eyJhbGciOiJIUzI1NiIsInR5cCI6IkpXVCJ9.eyJleHAiOjE2NTg2NzQ0OTQsImxvZ2luIjoidGVzdDEyMyJ9.mvE13Ci6xACj89jL-OLJUVd91ildY0sdD5UjRTHsuGE; Path=/; Expires=Fri, 01 Jan 9999 00:00:00 GMT"
								},
								{
									"key": "Date",
									"value": "Sun, 24 Jul 2022 14:49:54 GMT"
								},
								{
									"key": "Content-Length",
									"value": "170"
								}
							],
							"cookie": [],
							"body": "[\n    {\n        \"id\": 1,\n        \"name\": \"task1 name\",\n        \"description\": \"task1 description\",\n        \"creator_email\": \"test123\",\n        \"created_at\": \"2022-07-24T17:05:37+03:00\",\n        \"ended_at\": \"1970-01-01T03:00:00+03:00\"\n    }\n]"
						}
					]
				},
				{
					"name": "create task",
					"event": [
						{
							"listen": "test",
							"script": {
								"exec": [
									"pm.test(\"response must be valid and have a body\", function () {\r",
									"    pm.response.to.be.ok;\r",
									"});\r",
									""
								],
								"type": "text/javascript"
							}
						}
					],
					"request": {
						"method": "POST",
						"header": [],
						"body": {
							"mode": "raw",
							"raw": "{\r\n    \"name\":\"task1 name\",\r\n    \"description\":\"task1 description\",\r\n    \"participant_emails\":[\r\n        \"a@a.org\",\r\n        \"b@a.org\",\r\n        \"c@a.org\",\r\n        \"d@a.org\"\r\n    ]\r\n}",
							"options": {
								"raw": {
									"language": "json"
								}
							}
						},
						"url": {
							"raw": "{{tasksUrl}}/tasks/",
							"host": [
								"{{tasksUrl}}"
							],
							"path": [
								"tasks",
								""
							]
						}
					},
					"response": [
						{
							"name": "OK",
							"originalRequest": {
								"method": "POST",
								"header": [],
								"body": {
									"mode": "raw",
									"raw": "{\r\n    \"name\":\"task1 name\",\r\n    \"description\":\"task1 description\",\r\n    \"participant_emails\":[\r\n        \"a@a.org\",\r\n        \"b@a.org\"\r\n    ]\r\n}",
									"options": {
										"raw": {
											"language": "json"
										}
									}
								},
								"url": {
									"raw": "{{tasksUrl}}/tasks/",
									"host": [
										"{{tasksUrl}}"
									],
									"path": [
										"tasks",
										""
									]
								}
							},
							"status": "OK",
							"code": 200,
							"_postman_previewlanguage": "json",
							"header": [
								{
									"key": "Content-Type",
									"value": "application/json"
								},
								{
									"key": "Set-Cookie",
									"value": "Login=test123; Path=/; Expires=Fri, 01 Jan 9999 00:00:00 GMT"
								},
								{
									"key": "Set-Cookie",
									"value": "AccessToken=3877dc71-9892-4901-b39e-a01d12d21f58; Path=/; Expires=Fri, 01 Jan 9999 00:00:00 GMT"
								},
								{
									"key": "Set-Cookie",
									"value": "RefreshToken=eyJhbGciOiJIUzI1NiIsInR5cCI6IkpXVCJ9.eyJleHAiOjE2NTg2NzE4MzcsImxvZ2luIjoidGVzdDEyMyJ9.RM-egfvZtVEg7wVVbWby15-mshWUo1fj-eO4gpGrkRQ; Path=/; Expires=Fri, 01 Jan 9999 00:00:00 GMT"
								},
								{
									"key": "Date",
									"value": "Sun, 24 Jul 2022 14:05:43 GMT"
								},
								{
									"key": "Content-Length",
									"value": "2"
								}
							],
							"cookie": [],
							"body": "{}"
						}
					]
				},
				{
					"name": "list tasks - remember id",
					"event": [
						{
							"listen": "prerequest",
							"script": {
								"exec": [
									""
								],
								"type": "text/javascript"
							}
						},
						{
							"listen": "test",
							"script": {
								"exec": [
									"pm.test(\"response must be valid and have a body\", function () {\r",
									"    pm.response.to.be.ok;\r",
									"    pm.response.to.be.withBody;\r",
									"    pm.response.to.be.json;     \r",
									"});\r",
									"\r",
									"const responseJson = pm.response.json();\r",
									"console.log(responseJson)\r",
									"pm.collectionVariables.set(\"lastTaskId\", responseJson[0].id)\r",
									""
								],
								"type": "text/javascript"
							}
						}
					],
					"protocolProfileBehavior": {
						"disableBodyPruning": true
					},
					"request": {
						"method": "GET",
						"header": [],
						"body": {
							"mode": "raw",
							"raw": "{\"email\":\"{{login}}\"}\r\n",
							"options": {
								"raw": {
									"language": "json"
								}
							}
						},
						"url": {
							"raw": "{{tasksUrl}}/tasks/",
							"host": [
								"{{tasksUrl}}"
							],
							"path": [
								"tasks",
								""
							]
						}
					},
					"response": [
						{
							"name": "OK - empty list",
							"originalRequest": {
								"method": "GET",
								"header": [],
								"body": {
									"mode": "raw",
									"raw": "{\"email\":\"{{login}}\"}\r\n",
									"options": {
										"raw": {
											"language": "json"
										}
									}
								},
								"url": {
									"raw": "{{tasksUrl}}/tasks/",
									"host": [
										"{{tasksUrl}}"
									],
									"path": [
										"tasks",
										""
									]
								}
							},
							"status": "OK",
							"code": 200,
							"_postman_previewlanguage": "json",
							"header": [
								{
									"key": "Content-Type",
									"value": "application/json"
								},
								{
									"key": "Set-Cookie",
									"value": "Login=test123; Path=/; Expires=Fri, 01 Jan 9999 00:00:00 GMT"
								},
								{
									"key": "Set-Cookie",
									"value": "AccessToken=6280930a-437d-40f1-950f-c26652703aca; Path=/; Expires=Fri, 01 Jan 9999 00:00:00 GMT"
								},
								{
									"key": "Set-Cookie",
									"value": "RefreshToken=eyJhbGciOiJIUzI1NiIsInR5cCI6IkpXVCJ9.eyJleHAiOjE2NTg2MjYyMDYsImxvZ2luIjoidGVzdDEyMyJ9.aSm9kkmmDXVohaal0FmWwTUEP5come8hZFYO8PPd_es; Path=/; Expires=Fri, 01 Jan 9999 00:00:00 GMT"
								},
								{
									"key": "Date",
									"value": "Sun, 24 Jul 2022 01:25:06 GMT"
								},
								{
									"key": "Content-Length",
									"value": "2"
								}
							],
							"cookie": [],
							"body": "[]"
						},
						{
							"name": "OK - one task",
							"originalRequest": {
								"method": "GET",
								"header": [],
								"body": {
									"mode": "raw",
									"raw": "{\"email\":\"{{login}}\"}\r\n",
									"options": {
										"raw": {
											"language": "json"
										}
									}
								},
								"url": {
									"raw": "{{tasksUrl}}/tasks/",
									"host": [
										"{{tasksUrl}}"
									],
									"path": [
										"tasks",
										""
									]
								}
							},
							"status": "OK",
							"code": 200,
							"_postman_previewlanguage": "json",
							"header": [
								{
									"key": "Content-Type",
									"value": "application/json"
								},
								{
									"key": "Set-Cookie",
									"value": "Login=test123; Path=/; Expires=Fri, 01 Jan 9999 00:00:00 GMT"
								},
								{
									"key": "Set-Cookie",
									"value": "AccessToken=8c7f32ee-25e8-420a-8f42-9ca83443f1f2; Path=/; Expires=Fri, 01 Jan 9999 00:00:00 GMT"
								},
								{
									"key": "Set-Cookie",
									"value": "RefreshToken=eyJhbGciOiJIUzI1NiIsInR5cCI6IkpXVCJ9.eyJleHAiOjE2NTg2NzQ0OTQsImxvZ2luIjoidGVzdDEyMyJ9.mvE13Ci6xACj89jL-OLJUVd91ildY0sdD5UjRTHsuGE; Path=/; Expires=Fri, 01 Jan 9999 00:00:00 GMT"
								},
								{
									"key": "Date",
									"value": "Sun, 24 Jul 2022 14:49:54 GMT"
								},
								{
									"key": "Content-Length",
									"value": "170"
								}
							],
							"cookie": [],
							"body": "[\n    {\n        \"id\": 1,\n        \"name\": \"task1 name\",\n        \"description\": \"task1 description\",\n        \"creator_email\": \"test123\",\n        \"created_at\": \"2022-07-24T17:05:37+03:00\",\n        \"ended_at\": \"1970-01-01T03:00:00+03:00\"\n    }\n]"
						}
					]
				},
				{
					"name": "read task by id - remember letters uuids",
					"event": [
						{
							"listen": "test",
							"script": {
								"exec": [
									"pm.test(\"response must be valid and have a body\", function () {\r",
									"    pm.response.to.be.ok;\r",
									"    pm.response.to.be.withBody;\r",
									"    pm.response.to.be.json;     \r",
									"});\r",
									"\r",
									"const responseJson = pm.response.json();\r",
									"var letters = responseJson.letters\r",
									"pm.collectionVariables.set(\"lastLetterUuid1\", letters[0].accept_uuid)\r",
									"pm.collectionVariables.set(\"lastLetterUuid2\", letters[1].accept_uuid)\r",
									"pm.collectionVariables.set(\"lastLetterUuid3\", letters[2].accept_uuid)\r",
									"pm.collectionVariables.set(\"lastLetterUuid4\", letters[3].accept_uuid)\r",
									""
								],
								"type": "text/javascript"
							}
						}
					],
					"request": {
						"method": "GET",
						"header": [],
						"url": {
							"raw": "{{tasksUrl}}/tasks/{{lastTaskId}}",
							"host": [
								"{{tasksUrl}}"
							],
							"path": [
								"tasks",
								"{{lastTaskId}}"
							]
						}
					},
					"response": [
						{
							"name": "OK - two letters",
							"originalRequest": {
								"method": "GET",
								"header": [],
								"url": {
									"raw": "{{tasksUrl}}/tasks/1",
									"host": [
										"{{tasksUrl}}"
									],
									"path": [
										"tasks",
										"1"
									]
								}
							},
							"status": "OK",
							"code": 200,
							"_postman_previewlanguage": "json",
							"header": [
								{
									"key": "Content-Type",
									"value": "application/json"
								},
								{
									"key": "Set-Cookie",
									"value": "Login=test123; Path=/; Expires=Fri, 01 Jan 9999 00:00:00 GMT"
								},
								{
									"key": "Set-Cookie",
									"value": "AccessToken=10580305-9cfb-46f1-b4a1-7437e194bca7; Path=/; Expires=Fri, 01 Jan 9999 00:00:00 GMT"
								},
								{
									"key": "Set-Cookie",
									"value": "RefreshToken=eyJhbGciOiJIUzI1NiIsInR5cCI6IkpXVCJ9.eyJleHAiOjE2NTg2ODQyMjYsImxvZ2luIjoidGVzdDEyMyJ9.6iDcQ1-yrxYbMh9HPTEUc6pWYN8r7Mlmryb1I-DazqE; Path=/; Expires=Fri, 01 Jan 9999 00:00:00 GMT"
								},
								{
									"key": "Date",
									"value": "Sun, 24 Jul 2022 17:32:06 GMT"
								},
								{
									"key": "Content-Length",
									"value": "643"
								}
							],
							"cookie": [],
							"body": "{\n    \"task\": {\n        \"id\": 1,\n        \"name\": \"task1 name\",\n        \"description\": \"task1 description\",\n        \"creator_email\": \"test123\",\n        \"created_at\": \"2022-07-24T17:05:37+03:00\",\n        \"ended_at\": \"1970-01-01T03:00:00+03:00\"\n    },\n    \"letters\": [\n        {\n            \"id\": 1,\n            \"email\": \"a@a.org\",\n            \"order\": 0,\n            \"task_id\": 1,\n            \"sent\": false,\n            \"answered\": false,\n            \"accepted\": false,\n            \"accept_uuid\": \"247cca69-d2a2-42f7-b8a0-47783917b1a2\",\n            \"accept_at\": \"1970-01-01T03:00:00+03:00\",\n            \"sent_at\": \"2022-07-24T17:05:40+03:00\"\n        },\n        {\n            \"id\": 2,\n            \"email\": \"b@a.org\",\n            \"order\": 1,\n            \"task_id\": 1,\n            \"sent\": false,\n            \"answered\": false,\n            \"accepted\": false,\n            \"accept_uuid\": \"5bcdf764-1ff1-4506-ae56-fce6514289e2\",\n            \"accept_at\": \"1970-01-01T03:00:00+03:00\",\n            \"sent_at\": \"2022-07-24T17:05:42+03:00\"\n        }\n    ]\n}"
						},
						{
							"name": "OK - four letters",
							"originalRequest": {
								"method": "GET",
								"header": [],
								"url": {
									"raw": "{{tasksUrl}}/tasks/{{lastTaskId}}",
									"host": [
										"{{tasksUrl}}"
									],
									"path": [
										"tasks",
										"{{lastTaskId}}"
									]
								}
							},
							"status": "OK",
							"code": 200,
							"_postman_previewlanguage": "json",
							"header": [
								{
									"key": "Content-Type",
									"value": "application/json"
								},
								{
									"key": "Set-Cookie",
									"value": "Login=test123; Path=/; Expires=Fri, 01 Jan 9999 00:00:00 GMT"
								},
								{
									"key": "Set-Cookie",
									"value": "AccessToken=3041f44f-0f71-4538-8c2a-8b973c8e4df6; Path=/; Expires=Fri, 01 Jan 9999 00:00:00 GMT"
								},
								{
									"key": "Set-Cookie",
									"value": "RefreshToken=eyJhbGciOiJIUzI1NiIsInR5cCI6IkpXVCJ9.eyJleHAiOjE2NTk4Mjc5MTAsImxvZ2luIjoidGVzdDEyMyJ9.VdNN5B4YqctxvJv9QcJrnSe6cDHhBpPJwtcTZ9gj4Pc; Path=/; Expires=Fri, 01 Jan 9999 00:00:00 GMT"
								},
								{
									"key": "Date",
									"value": "Sat, 06 Aug 2022 23:13:31 GMT"
								},
								{
									"key": "Content-Length",
									"value": "1122"
								}
							],
							"cookie": [],
							"body": "{\n    \"task\": {\n        \"id\": 21,\n        \"name\": \"task1 name updated\",\n        \"description\": \"task1 description updated\",\n        \"creator_email\": \"test123\",\n        \"created_at\": \"2022-07-24T12:01:02+03:00\",\n        \"ended_at\": \"1970-01-01T03:00:00+03:00\"\n    },\n    \"letters\": [\n        {\n            \"id\": 29,\n            \"email\": \"a@a.org\",\n            \"order\": 0,\n            \"task_id\": 21,\n            \"sent\": false,\n            \"answered\": false,\n            \"accepted\": false,\n            \"accept_uuid\": \"8a7d6299-c547-44d3-b442-fe499f8685a3\",\n            \"accept_at\": \"1970-01-01T03:00:00+03:00\",\n            \"sent_at\": \"2022-08-07T02:09:47+03:00\"\n        },\n        {\n            \"id\": 30,\n            \"email\": \"b@a.org\",\n            \"order\": 1,\n            \"task_id\": 21,\n            \"sent\": false,\n            \"answered\": false,\n            \"accepted\": false,\n            \"accept_uuid\": \"f0ccb29d-cdf1-4415-ae76-94415dfc6c33\",\n            \"accept_at\": \"1970-01-01T03:00:00+03:00\",\n            \"sent_at\": \"2022-08-07T02:09:49+03:00\"\n        },\n        {\n            \"id\": 31,\n            \"email\": \"c@a.org\",\n            \"order\": 2,\n            \"task_id\": 21,\n            \"sent\": false,\n            \"answered\": false,\n            \"accepted\": false,\n            \"accept_uuid\": \"f44e820f-0e43-4de9-956c-4ae75a6f0a49\",\n            \"accept_at\": \"1970-01-01T03:00:00+03:00\",\n            \"sent_at\": \"2022-08-07T02:09:49+03:00\"\n        },\n        {\n            \"id\": 32,\n            \"email\": \"d@a.org\",\n            \"order\": 3,\n            \"task_id\": 21,\n            \"sent\": false,\n            \"answered\": false,\n            \"accepted\": false,\n            \"accept_uuid\": \"b0f9b244-741e-42fb-b776-52345533e8d9\",\n            \"accept_at\": \"1970-01-01T03:00:00+03:00\",\n            \"sent_at\": \"2022-08-07T02:09:49+03:00\"\n        }\n    ]\n}"
						}
					]
				},
				{
					"name": "update task",
					"event": [
						{
							"listen": "test",
							"script": {
								"exec": [
									"pm.test(\"response must be valid and have a body\", function () {\r",
									"    pm.response.to.be.ok;\r",
									"    pm.response.to.be.withBody;\r",
									"    pm.response.to.be.json;     \r",
									"});\r",
									""
								],
								"type": "text/javascript"
							}
						}
					],
					"request": {
						"method": "PUT",
						"header": [],
						"body": {
							"mode": "raw",
							"raw": "{\r\n    \"id\": {{lastTaskId}},\r\n    \"name\": \"task1 name updated\",\r\n    \"description\": \"task1 description updated\",\r\n    \"creator_email\": \"test123\",\r\n    \"created_at\": \"2022-07-24T12:01:02+03:00\",\r\n    \"ended_at\": \"1970-01-01T03:00:00+03:00\"\r\n}\r\n",
							"options": {
								"raw": {
									"language": "json"
								}
							}
						},
						"url": {
							"raw": "{{tasksUrl}}/tasks/{{lastTaskId}}",
							"host": [
								"{{tasksUrl}}"
							],
							"path": [
								"tasks",
								"{{lastTaskId}}"
							]
						}
					},
					"response": [
						{
							"name": "OK",
							"originalRequest": {
								"method": "PUT",
								"header": [],
								"body": {
									"mode": "raw",
									"raw": "{\r\n    \"id\": 1,\r\n    \"name\": \"task1 name updated\",\r\n    \"description\": \"task1 description updated\",\r\n    \"creator_email\": \"test123\",\r\n    \"created_at\": \"2022-07-24T12:01:02+03:00\",\r\n    \"ended_at\": \"1970-01-01T03:00:00+03:00\"\r\n}\r\n",
									"options": {
										"raw": {
											"language": "json"
										}
									}
								},
								"url": {
									"raw": "{{tasksUrl}}/tasks/1",
									"host": [
										"{{tasksUrl}}"
									],
									"path": [
										"tasks",
										"1"
									]
								}
							},
							"status": "OK",
							"code": 200,
							"_postman_previewlanguage": "json",
							"header": [
								{
									"key": "Content-Type",
									"value": "application/json"
								},
								{
									"key": "Set-Cookie",
									"value": "Login=test123; Path=/; Expires=Fri, 01 Jan 9999 00:00:00 GMT"
								},
								{
									"key": "Set-Cookie",
									"value": "AccessToken=9d47c2c6-e74e-442e-ae75-7f2700bf8b2c; Path=/; Expires=Fri, 01 Jan 9999 00:00:00 GMT"
								},
								{
									"key": "Set-Cookie",
									"value": "RefreshToken=eyJhbGciOiJIUzI1NiIsInR5cCI6IkpXVCJ9.eyJleHAiOjE2NTg2ODYxMzUsImxvZ2luIjoidGVzdDEyMyJ9.GZzpdX24TIi6P_S3yI-l_NBvOpCDgx386GadnWpsO40; Path=/; Expires=Fri, 01 Jan 9999 00:00:00 GMT"
								},
								{
									"key": "Date",
									"value": "Sun, 24 Jul 2022 18:03:55 GMT"
								},
								{
									"key": "Content-Length",
									"value": "2"
								}
							],
							"cookie": [],
							"body": "{}"
						}
					]
				},
				{
					"name": "first email clicks accept",
					"event": [
						{
							"listen": "test",
							"script": {
								"exec": [
									"pm.test(\"response must be ok\", function () {\r",
									"    pm.response.to.be.ok;\r",
									"});\r",
									""
								],
								"type": "text/javascript"
							}
						}
					],
					"request": {
						"method": "POST",
						"header": [],
						"url": {
							"raw": "{{tasksUrl}}/tasks/accept/{{lastLetterUuid1}}",
							"host": [
								"{{tasksUrl}}"
							],
							"path": [
								"tasks",
								"accept",
								"{{lastLetterUuid1}}"
							]
						}
					},
					"response": [
						{
							"name": "OK",
							"originalRequest": {
								"method": "POST",
								"header": [],
								"url": {
									"raw": "{{tasksUrl}}/tasks/accept/{{lastLetterUuid1}}",
									"host": [
										"{{tasksUrl}}"
									],
									"path": [
										"tasks",
										"accept",
										"{{lastLetterUuid1}}"
									]
								}
							},
							"status": "OK",
							"code": 200,
							"_postman_previewlanguage": "json",
							"header": [
								{
									"key": "Content-Type",
									"value": "application/json"
								},
								{
									"key": "Set-Cookie",
									"value": "Login=test123; Path=/; Expires=Fri, 01 Jan 9999 00:00:00 GMT"
								},
								{
									"key": "Set-Cookie",
									"value": "AccessToken=f2b47469-ceb2-486b-8abc-9e05aa291fa3; Path=/; Expires=Fri, 01 Jan 9999 00:00:00 GMT"
								},
								{
									"key": "Set-Cookie",
									"value": "RefreshToken=eyJhbGciOiJIUzI1NiIsInR5cCI6IkpXVCJ9.eyJleHAiOjE2NTk4MjgxODEsImxvZ2luIjoidGVzdDEyMyJ9.mjQgQOz7kLmh2l5QGQ3Cp6Ewtmt6rfSKyd50hL7rXNI; Path=/; Expires=Fri, 01 Jan 9999 00:00:00 GMT"
								},
								{
									"key": "Date",
									"value": "Sat, 06 Aug 2022 23:18:04 GMT"
								},
								{
									"key": "Content-Length",
									"value": "2"
								}
							],
							"cookie": [],
							"body": "{}"
						}
					]
				},
				{
					"name": "second email clicks accept",
					"event": [
						{
							"listen": "test",
							"script": {
								"exec": [
									"pm.test(\"response must be ok\", function () {\r",
									"    pm.response.to.be.ok;\r",
									"});\r",
									""
								],
								"type": "text/javascript"
							}
						}
					],
					"request": {
						"method": "POST",
						"header": [],
						"url": {
							"raw": "{{tasksUrl}}/tasks/accept/{{lastLetterUuid2}}",
							"host": [
								"{{tasksUrl}}"
							],
							"path": [
								"tasks",
								"accept",
								"{{lastLetterUuid2}}"
							]
						}
					},
					"response": [
						{
							"name": "OK",
							"originalRequest": {
								"method": "POST",
								"header": [],
								"url": {
									"raw": "{{tasksUrl}}/tasks/accept/{{lastLetterUuid2}}",
									"host": [
										"{{tasksUrl}}"
									],
									"path": [
										"tasks",
										"accept",
										"{{lastLetterUuid2}}"
									]
								}
							},
							"status": "OK",
							"code": 200,
							"_postman_previewlanguage": "json",
							"header": [
								{
									"key": "Content-Type",
									"value": "application/json"
								},
								{
									"key": "Set-Cookie",
									"value": "Login=test123; Path=/; Expires=Fri, 01 Jan 9999 00:00:00 GMT"
								},
								{
									"key": "Set-Cookie",
									"value": "AccessToken=f73f5a2d-fca7-4561-91b9-ea984e49d4aa; Path=/; Expires=Fri, 01 Jan 9999 00:00:00 GMT"
								},
								{
									"key": "Set-Cookie",
									"value": "RefreshToken=eyJhbGciOiJIUzI1NiIsInR5cCI6IkpXVCJ9.eyJleHAiOjE2NTk4MjgyNzAsImxvZ2luIjoidGVzdDEyMyJ9.27ONl_cWpal_W9r0frOCQC-y3FO8QSoJFeonF7XW5TA; Path=/; Expires=Fri, 01 Jan 9999 00:00:00 GMT"
								},
								{
									"key": "Date",
									"value": "Sat, 06 Aug 2022 23:19:32 GMT"
								},
								{
									"key": "Content-Length",
									"value": "2"
								}
							],
							"cookie": [],
							"body": "{}"
						}
					]
				},
				{
					"name": "third email clicks decline",
					"event": [
						{
							"listen": "test",
							"script": {
								"exec": [
									"pm.test(\"response must be ok\", function () {\r",
									"    pm.response.to.be.ok;\r",
									"});\r",
									""
								],
								"type": "text/javascript"
							}
						}
					],
					"request": {
						"method": "POST",
						"header": [],
						"url": {
							"raw": "{{tasksUrl}}/tasks/decline/{{lastLetterUuid3}}",
							"host": [
								"{{tasksUrl}}"
							],
							"path": [
								"tasks",
								"decline",
								"{{lastLetterUuid3}}"
							]
						}
					},
					"response": [
						{
							"name": "OK",
							"originalRequest": {
								"method": "POST",
								"header": [],
								"url": {
									"raw": "{{tasksUrl}}/tasks/decline/{{lastLetterUuid3}}",
									"host": [
										"{{tasksUrl}}"
									],
									"path": [
										"tasks",
										"decline",
										"{{lastLetterUuid3}}"
									]
								}
							},
							"status": "OK",
							"code": 200,
							"_postman_previewlanguage": "json",
							"header": [
								{
									"key": "Content-Type",
									"value": "application/json"
								},
								{
									"key": "Set-Cookie",
									"value": "Login=test123; Path=/; Expires=Fri, 01 Jan 9999 00:00:00 GMT"
								},
								{
									"key": "Set-Cookie",
									"value": "AccessToken=ba9349d6-338d-4ec1-88ee-455927e1a922; Path=/; Expires=Fri, 01 Jan 9999 00:00:00 GMT"
								},
								{
									"key": "Set-Cookie",
									"value": "RefreshToken=eyJhbGciOiJIUzI1NiIsInR5cCI6IkpXVCJ9.eyJleHAiOjE2NTk4MjgyOTEsImxvZ2luIjoidGVzdDEyMyJ9.6k_Lh8i0Ra0JjII_chO_bdaaWaCsqTbCQMVw07w2loY; Path=/; Expires=Fri, 01 Jan 9999 00:00:00 GMT"
								},
								{
									"key": "Date",
									"value": "Sat, 06 Aug 2022 23:19:54 GMT"
								},
								{
									"key": "Content-Length",
									"value": "2"
								}
							],
							"cookie": [],
							"body": "{}"
						}
					]
				},
				{
					"name": "delete task",
					"event": [
						{
							"listen": "test",
							"script": {
								"exec": [
									"pm.test(\"response must be valid and have a body\", function () {\r",
									"    pm.response.to.be.ok;\r",
									"    pm.response.to.be.withBody;\r",
									"    pm.response.to.be.json;     \r",
									"});\r",
									""
								],
								"type": "text/javascript"
							}
						}
					],
					"request": {
						"method": "DELETE",
						"header": [],
						"url": {
							"raw": "{{tasksUrl}}/tasks/{{lastTaskId}}",
							"host": [
								"{{tasksUrl}}"
							],
							"path": [
								"tasks",
								"{{lastTaskId}}"
							]
						}
					},
					"response": [
						{
							"name": "OK",
							"originalRequest": {
								"method": "DELETE",
								"header": [],
								"url": {
									"raw": "{{tasksUrl}}/tasks/1",
									"host": [
										"{{tasksUrl}}"
									],
									"path": [
										"tasks",
										"1"
									]
								}
							},
							"status": "OK",
							"code": 200,
							"_postman_previewlanguage": "json",
							"header": [
								{
									"key": "Content-Type",
									"value": "application/json"
								},
								{
									"key": "Set-Cookie",
									"value": "Login=test123; Path=/; Expires=Fri, 01 Jan 9999 00:00:00 GMT"
								},
								{
									"key": "Set-Cookie",
									"value": "AccessToken=da33b753-a92d-41cd-bccf-3ecbd3504195; Path=/; Expires=Fri, 01 Jan 9999 00:00:00 GMT"
								},
								{
									"key": "Set-Cookie",
									"value": "RefreshToken=eyJhbGciOiJIUzI1NiIsInR5cCI6IkpXVCJ9.eyJleHAiOjE2NTg2ODczMDgsImxvZ2luIjoidGVzdDEyMyJ9.2igThmPxVV0ku5nmKFRBv4EntuCOtY5qX9MhzHv4lCI; Path=/; Expires=Fri, 01 Jan 9999 00:00:00 GMT"
								},
								{
									"key": "Date",
									"value": "Sun, 24 Jul 2022 18:23:29 GMT"
								},
								{
									"key": "Content-Length",
									"value": "2"
								}
							],
							"cookie": [],
							"body": "{}"
						}
					]
				}
			]
		}
	],
	"event": [
		{
			"listen": "prerequest",
			"script": {
				"type": "text/javascript",
				"exec": [
					""
				]
			}
		},
		{
			"listen": "test",
			"script": {
				"type": "text/javascript",
				"exec": [
					""
				]
			}
		}
	],
	"variable": [
		{
			"key": "authUrl",
			"value": "127.0.0.1:3000",
			"type": "default"
		},
		{
			"key": "tasksUrl",
			"value": "127.0.0.2:3001",
			"type": "default"
		},
		{
			"key": "login",
			"value": "test123",
			"type": "default"
		},
		{
			"key": "password",
			"value": "qwerty",
			"type": "default"
		},
		{
			"key": "lastTaskId",
			"value": "",
			"type": "default"
		},
		{
			"key": "authAccessToken",
			"value": ""
		},
		{
			"key": "authLogin",
			"value": ""
		},
		{
			"key": "authRefreshToken",
			"value": ""
		},
		{
			"key": "lastLetterUuid1",
			"value": "",
			"type": "default"
		},
		{
			"key": "lastLetterUuid2",
			"value": "",
			"type": "default"
		},
		{
			"key": "lastLetterUuid3",
			"value": "",
			"type": "default"
		},
		{
			"key": "lastLetterUuid4",
			"value": "",
			"type": "default"
		}
	]
}